<svg width="24" height="24" viewBox="0 0 24 24" fill="none" xmlns="http://www.w3.org/2000/svg">
<path fill-rule="evenodd" clip-rule="evenodd" d="M10.385 12L5.79498 7.41L7.20498 6L13.205 12L7.20498 18L5.79498 16.59L10.385 12ZM18.205 6H16.205V18H18.205V6Z" fill="#ACACAC"/>
</svg>
